<?xml version="1.0" encoding="UTF-8"?>
<svg width="20px" height="36px" viewBox="0 0 20 36" version="1.1" xmlns="http://www.w3.org/2000/svg" xmlns:xlink="http://www.w3.org/1999/xlink">
    <!-- Generator: Sketch 55.1 (78136) - https://sketchapp.com -->
    <title>Path 10</title>
    <desc>Created with Sketch.</desc>
    <g id="Modules" stroke="none" stroke-width="1" fill="none" fill-rule="evenodd" stroke-linecap="round" stroke-linejoin="round">
        <g id="Partner-|&gt;-1420" transform="translate(-1356.000000, -3226.000000)" stroke="#FFFFFF" stroke-width="4">
            <g id="Carrousel" transform="translate(130.000000, 3120.000000)">
                <polyline id="Path-10" points="1228 108 1244 124 1228 140"></polyline>
            </g>
        </g>
    </g>
</svg>