
<svg width="50px" height="50px" viewBox="0 0 50 50" version="1.1" xmlns="http://www.w3.org/2000/svg" xmlns:xlink="http://www.w3.org/1999/xlink">
    <!-- Generator: Sketch 51.3 (57544) - http://www.bohemiancoding.com/sketch -->
    <desc>Created with Sketch.</desc>
    <defs></defs>
    <g id="Modules" stroke="none" stroke-width="1" fill="none" fill-rule="evenodd">
        <g id="Events-|-1239---960|-Small-Desktop-&amp;-Tablet-Portrait" transform="translate(-765.000000, -1135.000000)">
            <g id="Events" transform="translate(32.000000, 200.000000)">
                <g id="Event-Big" transform="translate(0.000000, 576.000000)">
                    <g id="add-to-calendar" transform="translate(734.000000, 360.000000)">
                        <circle id="Oval" stroke="#003750" fill="#FFFFFF" cx="24" cy="24" r="24"></circle>
                        <g id="icon" transform="translate(11.000000, 12.000000)">
                            <rect id="Rectangle" fill="#003750" x="5.40000021" y="0" width="1" height="6.2"></rect>
                            <rect id="Rectangle-Copy-7" fill="#003750" transform="translate(13.400000, 14.300000) rotate(90.000000) translate(-13.400000, -14.300000) " x="13" y="8" width="1" height="12.6000005"></rect>
                            <rect id="Rectangle-Copy-5" fill="#003750" x="19.8000008" y="0" width="1" height="6.2"></rect>
                            <rect id="Rectangle-Copy-6" fill="#003750" x="13" y="8" width="1" height="12.6000005"></rect>
                            <rect id="Rectangle" stroke="#003750" x="0" y="4" width="27.0000011" height="19.8000008"></rect>
                        </g>
                    </g>
                </g>
            </g>
        </g>
    </g>
</svg>