<?xml version="1.0" encoding="utf-8"?>
<!-- Generator: Adobe Illustrator 22.1.0, SVG Export Plug-In . SVG Version: 6.00 Build 0)  -->
<svg version="1.1" id="download" xmlns="http://www.w3.org/2000/svg" xmlns:xlink="http://www.w3.org/1999/xlink" x="0px" y="0px"
	 viewBox="0 0 48 48" style="enable-background:new 0 0 48 48;" xml:space="preserve">
<g id="circle">
	<path d="M24,1c12.68,0,23,10.32,23,23S36.68,47,24,47S1,36.68,1,24S11.32,1,24,1 M24,0C10.75,0,0,10.75,0,24s10.75,24,24,24
		s24-10.75,24-24S37.25,0,24,0L24,0z"/>
</g>
<g>
	<path d="M34,13h-2v3c0,0.55-0.45,1-1,1h-1c-0.55,0-1-0.45-1-1v-3H18v3c0,0.55-0.45,1-1,1h-1c-0.55,0-1-0.45-1-1v-3h-2
		c-0.55,0-1,0.45-1,1v18c0,0.55,0.45,1,1,1h16.28c-0.07-0.2-0.14-0.39-0.19-0.6c-0.03-0.13-0.03-0.26-0.04-0.4H13V19h21v8.05
		c0.34,0.04,0.68,0.12,1,0.23V14C35,13.45,34.55,13,34,13z"/>
	<path d="M16,23h-1c-0.55,0-1-0.45-1-1v-1c0-0.55,0.45-1,1-1h1c0.55,0,1,0.45,1,1v1C17,22.55,16.55,23,16,23z"/>
	<path d="M20,23h-1c-0.55,0-1-0.45-1-1v-1c0-0.55,0.45-1,1-1h1c0.55,0,1,0.45,1,1v1C21,22.55,20.55,23,20,23z"/>
	<path d="M24,23h-1c-0.55,0-1-0.45-1-1v-1c0-0.55,0.45-1,1-1h1c0.55,0,1,0.45,1,1v1C25,22.55,24.55,23,24,23z"/>
	<path d="M28,23h-1c-0.55,0-1-0.45-1-1v-1c0-0.55,0.45-1,1-1h1c0.55,0,1,0.45,1,1v1C29,22.55,28.55,23,28,23z"/>
	<path d="M32,23h-1c-0.55,0-1-0.45-1-1v-1c0-0.55,0.45-1,1-1h1c0.55,0,1,0.45,1,1v1C33,22.55,32.55,23,32,23z"/>
	<path d="M16,27.07h-1c-0.55,0-1-0.45-1-1v-1c0-0.55,0.45-1,1-1h1c0.55,0,1,0.45,1,1v1C17,26.63,16.55,27.07,16,27.07z"/>
	<path d="M20,27.07h-1c-0.55,0-1-0.45-1-1v-1c0-0.55,0.45-1,1-1h1c0.55,0,1,0.45,1,1v1C21,26.63,20.55,27.07,20,27.07z"/>
	<path d="M24,27.07h-1c-0.55,0-1-0.45-1-1v-1c0-0.55,0.45-1,1-1h1c0.55,0,1,0.45,1,1v1C25,26.63,24.55,27.07,24,27.07z"/>
	<path d="M28,27.07h-1c-0.55,0-1-0.45-1-1v-1c0-0.55,0.45-1,1-1h1c0.55,0,1,0.45,1,1v1C29,26.63,28.55,27.07,28,27.07z"/>
	<path d="M16,31.07h-1c-0.55,0-1-0.45-1-1v-1c0-0.55,0.45-1,1-1h1c0.55,0,1,0.45,1,1v1C17,30.63,16.55,31.07,16,31.07z"/>
	<path d="M20,31.07h-1c-0.55,0-1-0.45-1-1v-1c0-0.55,0.45-1,1-1h1c0.55,0,1,0.45,1,1v1C21,30.63,20.55,31.07,20,31.07z"/>
	<path d="M24,31.07h-1c-0.55,0-1-0.45-1-1v-1c0-0.55,0.45-1,1-1h1c0.55,0,1,0.45,1,1v1C25,30.63,24.55,31.07,24,31.07z"/>
	<path d="M28,31.07h-1c-0.55,0-1-0.45-1-1v-1c0-0.55,0.45-1,1-1h1c0.55,0,1,0.45,1,1v1C29,30.63,28.55,31.07,28,31.07z"/>
	<path d="M32,27.07h-1c-0.55,0-1-0.45-1-1v-1c0-0.55,0.45-1,1-1h1c0.55,0,1,0.45,1,1v1C33,26.63,32.55,27.07,32,27.07z"/>
	<path d="M36.93,30.8c-0.39-1.89-2.23-3.12-4.13-2.73c-1.89,0.39-3.12,2.23-2.73,4.13c0.39,1.89,2.23,3.12,4.13,2.73
		S37.32,32.7,36.93,30.8z M35.5,32H34v1.5c0,0.28-0.23,0.5-0.5,0.5c-0.28,0-0.5-0.22-0.5-0.5V32h-1.5c-0.28,0-0.5-0.22-0.5-0.5
		s0.22-0.5,0.5-0.5H33v-1.5c0-0.28,0.22-0.5,0.5-0.5c0.27,0,0.5,0.22,0.5,0.5V31h1.5c0.27,0,0.5,0.22,0.5,0.5S35.78,32,35.5,32z"/>
	<path d="M16.5,16L16.5,16c-0.27,0-0.5-0.22-0.5-0.5v-4c0-0.27,0.23-0.5,0.5-0.5l0,0c0.27,0,0.5,0.22,0.5,0.5v4
		C17,15.78,16.78,16,16.5,16z"/>
	<path d="M30.5,16L30.5,16c-0.28,0-0.5-0.22-0.5-0.5v-4c0-0.27,0.22-0.5,0.5-0.5h0c0.27,0,0.5,0.22,0.5,0.5v4
		C31,15.78,30.77,16,30.5,16z"/>
</g>
</svg>
