<?xml version="1.0" encoding="utf-8"?>
<!-- Generator: Adobe Illustrator 24.0.0, SVG Export Plug-In . SVG Version: 6.00 Build 0)  -->
<svg version="1.1" id="Layer_1" xmlns="http://www.w3.org/2000/svg" xmlns:xlink="http://www.w3.org/1999/xlink" x="0px" y="0px"
	 viewBox="0 0 18 18" style="enable-background:new 0 0 18 18;" xml:space="preserve">
<style type="text/css">
	.st0{fill:none;stroke:#00BED7;stroke-width:2;stroke-linecap:round;}
</style>
<g id="Modules">
	<g id="Latest-_x7C_-_x3E_-1420" transform="translate(-272.000000, -287.000000)">
		<g id="Labels" transform="translate(130.000000, 224.000000)">
			<g id="Events-selected-2" transform="translate(59.000000, 48.000000)">
				<g id="Stacked-Group" transform="translate(24.000000, 16.000000)">
					<g id="X" transform="translate(60.000000, 0.000000)">
						<path id="Path" class="st0" d="M0,0l15.6,16"/>
						<path id="Path_1_" class="st0" d="M15.6,0L0,16"/>
					</g>
				</g>
			</g>
		</g>
	</g>
</g>
</svg>
