<svg xmlns="http://www.w3.org/2000/svg" x="0px" y="0px"
	 viewBox="0 0 48 48" style="enable-background:new 0 0 48 48" xml:space="preserve">
  <path d="M38.167 24c0 7.214-5.116 12.829-11.806 14.009V27.935h3.148l.63-3.935h-3.778v-2.755c0-1.102.394-1.968 2.125-1.968h1.81v-3.62c-1.023-.157-2.125-.315-3.148-.315-3.227 0-5.509 1.968-5.509 5.509V24h-3.542v3.935h3.542v10.074C14.949 36.829 9.833 31.005 9.833 24c0-7.792 6.375-14.167 14.167-14.167S38.167 16.208 38.167 24zM48 24c0 13.255-10.745 24-24 24S0 37.255 0 24 10.745 0 24 0s24 10.745 24 24zm-1 0C47 11.318 36.682 1 24 1S1 11.318 1 24s10.318 23 23 23 23-10.318 23-23z"/>
</svg>
