<?xml version="1.0" encoding="utf-8"?>
<!-- Generator: Adobe Illustrator 24.0.0, SVG Export Plug-In . SVG Version: 6.00 Build 0)  -->
<svg version="1.1" id="Layer_1" xmlns="http://www.w3.org/2000/svg" xmlns:xlink="http://www.w3.org/1999/xlink" x="0px" y="0px"
	 viewBox="0 0 20 26" style="enable-background:new 0 0 20 26;" xml:space="preserve">
<desc>Created with Sketch.</desc>
<g id="Modules">
	<g id="Latest-_x7C_-_x3E_-1420" transform="translate(-144.000000, -283.000000)">
		<g id="Labels" transform="translate(130.000000, 224.000000)">
			<g id="show-labels" transform="translate(0.000000, 48.000000)">
				<g id="icon" transform="translate(15.000000, 12.000000)">
					<path id="Path-4-Copy" style="fill:none;stroke:#00BED7;stroke-width:2;stroke-linecap:round;" d="M15,0v24"/>
					<path id="Path-4" style="fill:none;stroke:#00BED7;stroke-width:2;stroke-linecap:round;" d="M3,0v24"/>
					
						<circle id="Oval" style="fill-rule:evenodd;clip-rule:evenodd;fill:#003750;stroke:#00BED7;stroke-width:2;" cx="3" cy="17" r="3"/>
					
						<circle id="Oval-Copy-3" style="fill-rule:evenodd;clip-rule:evenodd;fill:#003750;stroke:#00BED7;stroke-width:2;" cx="15" cy="5" r="3"/>
				</g>
			</g>
		</g>
	</g>
</g>
</svg>
