<?xml version="1.0" encoding="utf-8"?>
<!-- Generator: Adobe Illustrator 22.1.0, SVG Export Plug-In . SVG Version: 6.00 Build 0)  -->
<svg version="1.1" id="download" xmlns="http://www.w3.org/2000/svg" xmlns:xlink="http://www.w3.org/1999/xlink" x="0px" y="0px"
	 viewBox="0 0 48 48" style="enable-background:new 0 0 48 48;" xml:space="preserve">
<style type="text/css">
	.st0{fill-rule:evenodd;clip-rule:evenodd;}
</style>
<g id="linked_x5F_in">
	<path id="n" class="st0" d="M36,35.98h-4.97V28.2c0-1.86-0.03-4.24-2.58-4.24c-2.59,0-2.98,2.02-2.98,4.11v7.91h-4.97v-16h4.77
		v2.19h0.07c0.66-1.26,2.29-2.59,4.71-2.59c5.04,0,5.97,3.31,5.97,7.62V35.98z"/>
	<rect id="i" x="12.39" y="19.98" class="st0" width="4.98" height="16"/>
	<path id="dot" class="st0" d="M14.89,17.79c-1.6,0-2.89-1.29-2.89-2.88s1.29-2.88,2.89-2.88c1.59,0,2.88,1.29,2.88,2.88
		S16.48,17.79,14.89,17.79z"/>
</g>
<g id="circle">
	<g>
		<path d="M24,1c12.68,0,23,10.32,23,23S36.68,47,24,47S1,36.68,1,24S11.32,1,24,1 M24,0C10.74,0,0,10.74,0,24
			c0,13.25,10.74,24,24,24s24-10.75,24-24C48,10.74,37.26,0,24,0L24,0z"/>
	</g>
</g>
</svg>
