<?xml version="1.0" encoding="utf-8"?>
<!-- Generator: Adobe Illustrator 24.0.0, SVG Export Plug-In . SVG Version: 6.00 Build 0)  -->
<svg version="1.1" id="Layer_1" xmlns="http://www.w3.org/2000/svg" xmlns:xlink="http://www.w3.org/1999/xlink" x="0px" y="0px"
	 viewBox="0 0 24 23.3" style="enable-background:new 0 0 24 23.3;" xml:space="preserve">
<style type="text/css">
	.st0{fill-rule:evenodd;clip-rule:evenodd;fill:#003750;}
</style>
<g id="Modules">
	<g id="Contact-_x7C_-_x3E_1420" transform="translate(-544.000000, -500.000000)">
		<g id="Content" transform="translate(247.000000, 224.000000)">
			<g id="Contact" transform="translate(2.000000, 264.000000)">
				<g id="Telephon" transform="translate(295.000000, 11.000000)">
					<path id="Path" class="st0" d="M22.8,17.9c-0.6-0.3-3.5-1.9-4-2.1c-0.5-0.2-0.9-0.3-1.4,0.3c-0.4,0.6-1.6,1.9-2,2.3
						c-0.4,0.4-0.7,0.4-1.3,0.1c-0.6-0.3-2.5-1-4.7-3.2c-1.7-1.7-2.9-3.7-3.2-4.3c-0.3-0.6,0-0.9,0.3-1.2c0.3-0.3,0.6-0.7,0.9-1
						c0.3-0.3,0.4-0.6,0.6-1c0.2-0.4,0.1-0.7,0-1.1C7.9,6.4,6.8,3.4,6.4,2.1c-0.5-1.2-1-1-1.3-1.1C4.7,1.1,4.3,1,3.9,1
						C3.5,1,2.9,1.1,2.3,1.7C1.7,2.3,0.1,3.7,0,6.6c-0.1,3,1.9,5.9,2.2,6.3c0.3,0.4,3.9,6.8,9.9,9.5c6,2.6,6.1,1.8,7.2,1.8
						c1.1-0.1,3.6-1.3,4.2-2.7c0.6-1.4,0.6-2.6,0.5-2.8C23.8,18.4,23.4,18.2,22.8,17.9z"/>
				</g>
			</g>
		</g>
	</g>
</g>
</svg>
