<svg xmlns="http://www.w3.org/2000/svg" x="0px" y="0px"
	 viewBox="0 0 48 48" style="enable-background:new 0 0 48 48" xml:space="preserve">
  <path d="M35.039 14.663c-2.2-.6-11.057-.6-11.057-.6s-8.857.018-11.057.619a3.572 3.572 0 0 0-2.51 2.512C9.833 19.395 9.833 24 9.833 24s0 4.605.6 6.825a3.569 3.569 0 0 0 2.51 2.512c2.2.601 11.057.601 11.057.601s8.857 0 11.057-.601a3.572 3.572 0 0 0 2.51-2.512c.6-2.202.6-6.825.6-6.825s-.018-4.605-.618-6.825a3.57 3.57 0 0 0-2.51-2.512zm-13.87 13.594v-8.518l7.347 4.259-7.347 4.259zM24 0C10.745 0 0 10.745 0 24s10.745 24 24 24 24-10.745 24-24S37.255 0 24 0zm0 47C11.318 47 1 36.682 1 24S11.318 1 24 1s23 10.318 23 23-10.318 23-23 23z"/>
</svg>
