<?xml version="1.0" standalone="no"?>
<!DOCTYPE svg PUBLIC "-//W3C//DTD SVG 20010904//EN"
 "http://www.w3.org/TR/2001/REC-SVG-20010904/DTD/svg10.dtd">
<svg version="1.0" xmlns="http://www.w3.org/2000/svg"
 width="700.000000pt" height="700.000000pt" viewBox="0 0 700.000000 700.000000"
 preserveAspectRatio="xMidYMid meet">
<metadata>
Created by potrace 1.11, written by Peter Selinger 2001-2013
</metadata>
<g transform="translate(0.000000,700.000000) scale(0.100000,-0.100000)"
fill="#000000" stroke="none">
<path d="M3360 6452 c-19 -1 -42 -5 -50 -8 -9 -3 243 -262 735 -755 413 -413
741 -748 730 -745 -11 3 -60 15 -109 25 l-90 20 -712 712 -712 712 -56 -18
c-55 -18 -56 -18 -39 -38 10 -11 314 -316 676 -678 361 -362 657 -661 657
-664 0 -3 -4 -4 -8 -1 -4 2 -46 8 -92 12 l-85 6 -644 644 c-354 354 -645 644
-647 644 -9 0 -94 -45 -94 -50 0 -3 275 -280 610 -615 336 -335 610 -613 610
-616 0 -3 -36 -5 -80 -5 l-80 1 -584 583 -584 584 -41 -28 c-23 -14 -41 -31
-41 -37 0 -5 248 -257 550 -559 303 -303 550 -554 550 -558 0 -4 -32 -11 -70
-16 l-71 -9 -529 530 -529 530 -36 -35 c-19 -19 -34 -38 -32 -43 1 -5 227
-233 501 -507 l498 -499 -38 -10 c-22 -5 -53 -12 -71 -16 -31 -6 -43 5 -502
464 -259 259 -473 471 -476 471 -3 0 -19 -19 -35 -42 l-31 -42 447 -447 446
-446 -61 -24 -62 -24 -412 413 c-226 226 -415 412 -419 412 -9 0 -48 -74 -48
-90 0 -5 171 -181 381 -391 209 -209 378 -383 375 -386 -3 -3 -28 -16 -57 -29
l-52 -24 -345 345 c-190 190 -349 345 -352 345 -4 0 -13 -25 -20 -56 l-14 -55
312 -312 c172 -172 312 -315 312 -319 0 -7 -92 -58 -103 -58 -2 0 -124 120
-271 266 -146 147 -269 265 -272 262 -2 -3 -7 -27 -10 -54 -3 -27 -7 -54 -9
-60 -2 -6 102 -116 230 -244 l234 -234 -51 -34 -51 -34 -192 192 -192 192 -7
-47 c-12 -91 -15 -85 145 -245 88 -86 149 -155 146 -163 -2 -7 -23 -26 -46
-41 l-42 -29 -93 94 c-51 52 -104 104 -118 117 l-25 23 -1 -32 c0 -18 -3 -48
-6 -68 -6 -34 -2 -40 79 -121 l84 -85 -41 -42 -42 -43 -48 47 c-26 26 -49 45
-52 42 -2 -2 -6 -32 -9 -67 -5 -53 -3 -67 12 -83 18 -20 18 -21 -5 -44 -13
-13 -24 -37 -25 -52 0 -15 -2 -37 -4 -48 -2 -11 -5 -48 -6 -82 -2 -60 0 -64
35 -97 34 -33 46 -60 28 -68 -4 -1 -18 -17 -30 -35 -14 -20 -28 -30 -37 -26
-11 3 -15 -2 -16 -18 -1 -13 -2 -35 -4 -49 -1 -14 -5 -77 -9 -140 -4 -63 -9
-140 -11 -172 -4 -49 -1 -59 21 -83 14 -15 23 -32 20 -39 -57 -135 -55 -122
-61 -352 -4 -120 -7 -223 -8 -227 -1 -5 6 -11 15 -12 10 -2 36 -22 58 -45 l39
-41 -6 -67 c-3 -37 -6 -73 -6 -80 0 -7 -21 8 -47 33 -25 25 -48 45 -51 45 -2
0 -4 -32 -4 -71 l0 -72 47 -46 46 -46 4 -83 c1 -45 -1 -82 -5 -82 -4 0 -26 18
-48 40 -22 22 -42 40 -45 40 -2 0 -2 -34 -1 -75 l2 -74 62 -63 c49 -50 63 -71
68 -103 3 -22 12 -65 20 -95 8 -30 15 -60 15 -66 0 -6 -28 16 -61 50 -58 57
-61 59 -55 31 3 -16 21 -68 38 -115 28 -72 42 -94 95 -147 49 -49 74 -86 122
-181 81 -164 102 -195 190 -280 89 -86 187 -162 303 -233 l83 -52 -75 75 c-42
41 -91 94 -110 118 -19 23 -39 48 -45 54 -37 43 -76 98 -60 86 10 -8 101 -97
201 -198 111 -110 195 -187 214 -194 28 -9 34 -8 59 16 l27 26 49 -36 c80 -57
187 -111 233 -119 79 -13 97 -14 216 -20 66 -2 115 -1 110 4 -5 4 -45 20 -89
35 -104 36 -260 113 -357 176 l-78 50 40 36 c22 20 37 41 34 46 -6 10 3 5 61
-32 210 -133 433 -215 674 -248 55 -8 72 -6 139 18 42 15 111 43 152 62 l75
35 -135 -1 c-198 -1 -319 17 -485 70 -89 29 -254 107 -329 154 l-48 32 33 34
33 34 -44 47 -45 47 40 -31 c58 -44 164 -108 237 -141 186 -87 346 -123 553
-127 161 -3 260 9 393 45 69 19 92 31 135 69 90 81 217 213 217 226 0 3 -29
-13 -63 -35 -263 -166 -618 -226 -919 -156 -104 24 -186 54 -296 109 l-103 51
31 30 30 31 -92 95 c-83 85 -85 90 -8 21 14 -12 54 -42 90 -66 56 -37 90 -55
205 -106 163 -73 458 -96 652 -51 287 67 522 226 691 468 50 72 84 168 111
320 16 92 19 148 16 415 l-2 309 -42 86 -42 87 26 27 25 26 -107 106 c-60 59
-171 171 -248 249 l-140 142 72 -39 c141 -74 323 -233 403 -352 37 -54 51 -65
45 -33 -2 10 -4 63 -6 117 -1 54 -6 107 -12 118 -5 10 -94 103 -199 207 -104
104 -185 189 -181 189 29 0 257 -150 328 -216 54 -50 53 -50 48 28 -8 147 3
127 -149 279 l-139 140 85 -47 c47 -26 103 -59 125 -74 65 -43 64 -43 61 -13
-2 15 -7 70 -11 121 -5 67 -12 96 -24 105 -9 7 -38 37 -66 66 l-50 53 56 -31
c31 -17 59 -31 63 -31 6 0 3 61 -9 185 -22 229 -21 225 -31 235 -5 5 -52 25
-104 45 -87 34 -101 44 -179 121 -83 82 -84 84 -51 78 19 -4 75 -19 123 -35
80 -25 93 -32 147 -88 51 -53 80 -77 67 -53 -3 4 -8 39 -11 77 -12 126 -13
128 -59 149 -47 21 -220 195 -177 178 25 -10 194 -62 202 -62 2 0 -2 44 -10
97 l-14 97 -753 752 c-514 515 -758 752 -771 751 -11 -1 -35 -3 -54 -5z m872
-1599 c32 -32 58 -60 58 -63 0 -3 -38 -3 -84 -1 l-85 3 -59 59 -59 59 86 0 85
0 58 -57z m-323 -5 c27 -29 49 -53 48 -54 -1 -1 -36 -4 -77 -8 l-76 -6 -53 54
-54 55 39 3 c131 11 119 14 173 -44z m584 28 c43 -6 56 -15 125 -82 59 -59 70
-74 51 -70 -197 37 -190 34 -256 101 -34 34 -60 65 -57 67 2 3 24 2 47 -2 23
-5 64 -11 90 -14z m-872 -65 l49 -49 -63 -11 c-88 -15 -84 -17 -140 42 -28 28
-48 49 -44 46 5 -4 29 -1 55 6 79 22 90 19 143 -34z m-305 -8 c-3 -4 14 -28
39 -53 l46 -47 -53 -12 c-29 -6 -59 -15 -66 -20 -10 -6 -26 5 -54 35 -22 23
-40 46 -41 50 -2 6 73 35 132 53 2 0 1 -2 -3 -6z m-167 -177 c-2 -1 -30 -13
-62 -26 l-59 -23 -44 45 -43 45 61 24 61 24 45 -43 c24 -24 42 -44 41 -46z
m999 -16 l63 -60 -88 0 -89 0 -57 58 -57 58 82 2 83 2 63 -60z m277 33 c19 -5
155 -131 155 -143 0 -3 -46 3 -101 14 l-101 19 -59 61 c-33 33 -59 62 -59 64
0 5 138 -7 165 -15z m-586 -47 c39 -39 49 -53 35 -53 -10 1 -48 -2 -82 -6
l-64 -8 -49 50 c-27 28 -48 51 -47 52 2 0 23 3 48 6 25 3 47 7 49 9 2 2 16 4
30 4 18 -1 43 -18 80 -54z m-949 -31 c32 -32 39 -45 27 -45 -10 0 -36 -12 -58
-26 -44 -28 -43 -28 -101 30 -16 16 -28 30 -26 31 10 10 95 55 103 55 6 0 31
-20 55 -45z m660 -10 c24 -24 42 -46 39 -48 -2 -2 -32 -10 -66 -19 l-62 -14
-47 47 -47 47 44 12 c24 6 49 13 54 15 27 10 44 1 85 -40z m-256 -70 l47 -45
-28 -11 c-105 -41 -96 -42 -144 7 -23 24 -41 45 -38 47 6 5 102 45 110 46 4 1
28 -19 53 -44z m-615 -36 c19 -22 32 -41 30 -42 -41 -28 -90 -57 -97 -57 -4 0
-25 17 -46 39 l-38 39 44 30 c23 17 50 31 58 31 8 -1 30 -18 49 -40z m386 -59
c21 -22 37 -41 34 -44 -2 -2 -27 -15 -56 -30 l-51 -25 -44 43 -44 43 46 25
c25 14 52 26 60 27 9 0 33 -17 55 -39z m1001 -22 l56 -58 -86 0 -87 0 -55 54
-55 55 43 3 c125 9 122 10 184 -54z m219 46 c39 -4 73 -7 78 -6 4 1 6 -2 5 -6
-2 -5 23 -35 54 -67 32 -32 56 -60 54 -62 -1 -2 -27 1 -57 6 -30 6 -72 12 -93
15 -32 3 -51 16 -104 69 -73 73 -80 67 63 51z m-523 -71 l52 -53 -29 -1 c-17
0 -37 -2 -45 -4 -77 -16 -80 -15 -119 28 -22 23 -40 47 -40 52 -2 9 79 30 116
31 7 1 36 -23 65 -53z m867 12 c9 -2 45 -13 81 -24 59 -19 74 -29 170 -126
l105 -106 -90 39 c-49 21 -114 47 -144 58 -52 18 -74 36 -185 153 l-29 30 38
-10 c21 -6 45 -12 54 -14z m-2147 -35 c23 -22 40 -41 37 -42 -2 -2 -23 -18
-46 -36 -23 -17 -46 -32 -51 -32 -11 0 -72 66 -72 78 0 7 78 72 87 72 2 0 22
-18 45 -40z m1004 -27 c32 -32 42 -48 33 -52 -8 -2 -37 -12 -65 -22 l-52 -17
-46 47 -47 48 63 21 c35 11 64 21 66 21 1 1 23 -20 48 -46z m-636 -18 c39 -40
41 -45 24 -51 -10 -4 -34 -18 -52 -32 l-34 -24 -44 43 -43 43 47 32 c26 18 49
33 52 33 3 1 26 -19 50 -44z m399 -68 l46 -43 -63 -27 -63 -26 -40 41 c-21 23
-39 43 -39 44 0 5 94 53 104 54 5 0 30 -19 55 -43z m-947 -34 l38 -37 -42 -43
-42 -43 -43 42 -42 42 41 38 c23 21 44 38 47 38 3 0 22 -17 43 -37z m351 -24
l41 -41 -24 -19 c-14 -11 -36 -28 -50 -38 l-25 -18 -42 41 -43 42 48 37 c26
20 49 37 51 37 2 0 22 -18 44 -41z m1672 -41 c56 -57 65 -70 45 -65 -14 3 -54
9 -90 13 -36 4 -70 7 -76 8 -14 2 -124 113 -118 119 2 2 41 2 87 1 l82 -4 70
-72z m-345 17 c43 -43 50 -55 35 -56 -11 0 -47 -2 -79 -5 l-60 -4 -48 47 c-26
26 -48 51 -48 55 0 4 17 8 38 10 114 9 103 13 162 -47z m782 -130 c54 -54 96
-100 95 -102 -2 -1 -26 8 -55 22 -28 13 -87 37 -131 52 -74 26 -88 35 -162
109 l-81 81 119 -31 118 -32 97 -99z m-1740 108 c21 -20 38 -40 38 -44 0 -4
-12 -14 -27 -21 -16 -8 -38 -21 -50 -29 -22 -13 -26 -11 -65 30 -24 24 -38 45
-32 47 5 3 26 15 45 29 18 13 38 24 44 25 5 0 26 -17 47 -37z m667 -12 l50
-50 -71 -16 -71 -16 -49 48 -49 48 28 7 c15 4 44 11 63 16 19 6 38 10 42 11 4
1 30 -21 57 -48z m-237 -126 c-15 -7 -44 -17 -64 -24 -38 -12 -38 -12 -81 32
l-43 45 60 25 61 24 47 -45 48 -46 -28 -11z m-1313 44 l39 -40 -41 -45 -41
-45 -38 38 c-21 20 -38 42 -38 47 0 9 69 86 77 86 2 0 21 -18 42 -41z m335 -8
l39 -40 -41 -36 c-22 -20 -44 -36 -49 -35 -4 1 -25 18 -46 36 l-37 34 42 40
c24 22 45 40 48 40 3 0 23 -18 44 -39z m343 -103 l-51 -38 -40 40 c-44 45 -44
44 29 97 l30 21 41 -41 41 -42 -50 -37z m422 -21 c-2 -2 -26 -16 -53 -31 l-48
-28 -44 43 -44 43 56 32 56 32 40 -44 c23 -25 39 -46 37 -47z m990 -1 l65 -65
-50 5 c-27 2 -68 6 -92 7 -36 3 -50 11 -97 57 -30 29 -52 57 -50 61 3 4 40 5
82 3 l77 -4 65 -64z m-326 2 c26 -25 47 -48 47 -51 0 -2 -34 -7 -77 -11 l-76
-7 -49 48 -49 48 53 10 c83 17 99 13 151 -37z m752 -101 c52 -52 95 -97 95
-100 0 -3 -23 6 -51 19 -28 14 -88 37 -133 51 -75 24 -86 30 -153 100 -40 41
-73 76 -73 77 0 2 50 -10 110 -25 l111 -27 94 -95z m-2318 34 c11 -6 5 -18
-29 -55 l-43 -47 -39 40 -39 40 29 37 c16 20 33 42 38 49 8 11 17 6 40 -21 16
-19 36 -38 43 -43z m308 19 l40 -40 -45 -40 -45 -40 -37 37 c-21 20 -38 41
-38 45 0 8 71 77 80 78 3 0 24 -18 45 -40z m985 -5 c31 -31 39 -46 29 -49 -8
-3 -38 -12 -66 -20 l-53 -15 -40 40 c-22 22 -40 43 -40 48 0 9 84 39 110 40 9
1 36 -19 60 -44z m-630 -24 l41 -38 -51 -38 -52 -38 -34 35 c-18 20 -35 41
-36 46 -3 10 69 71 84 72 3 0 25 -17 48 -39z m386 -61 l44 -40 -59 -29 -58
-30 -43 44 -43 43 49 26 c27 14 53 25 58 26 5 0 28 -18 52 -40z m-899 -79 c30
-31 29 -39 -13 -85 l-36 -38 -39 38 c-21 21 -39 41 -39 45 0 4 16 26 37 48 39
44 41 44 90 -8z m1647 -14 c31 -31 56 -57 56 -60 0 -3 -39 -4 -86 -2 l-87 2
-52 54 -53 54 67 5 c93 7 92 8 155 -53z m-1971 15 l36 -37 -36 -52 -35 -51
-39 38 c-22 21 -39 42 -39 47 0 12 60 93 69 93 4 0 23 -17 44 -38z m652 -2
l39 -40 -42 -41 -43 -40 -43 39 -43 40 41 41 c22 23 43 41 46 41 3 0 24 -18
45 -40z m1540 14 l90 -17 100 -98 100 -99 -60 24 c-33 13 -94 34 -135 47 -68
21 -81 29 -139 91 -36 37 -60 68 -55 68 5 0 50 -7 99 -16z m-542 -111 c-36 -7
-68 -15 -70 -17 -2 -2 -24 17 -49 42 -25 24 -42 48 -37 53 4 4 33 14 63 22
l55 14 52 -51 52 -51 -66 -12z m-609 19 c-26 -22 -83 -62 -89 -62 -10 0 -89
79 -84 84 2 2 26 18 53 35 l49 30 40 -40 c22 -22 36 -43 31 -47z m332 19 c-3
-5 14 -27 38 -49 l44 -41 -26 -9 c-15 -6 -43 -17 -63 -26 l-36 -15 -43 44 -44
45 65 29 c73 34 72 34 65 22z m-889 -101 c20 -22 41 -36 47 -33 6 4 -7 -13
-28 -38 -22 -24 -45 -47 -51 -51 -7 -4 -28 9 -50 32 l-37 38 38 46 c21 25 40
46 42 46 2 0 20 -18 39 -40z m-313 -9 l38 -38 -35 -52 -35 -52 -42 41 -42 41
32 49 c18 28 35 50 39 50 3 -1 23 -18 45 -39z m648 -83 l-43 -41 -42 42 -42
42 44 40 45 40 40 -41 41 -40 -43 -42z m-946 -34 l-31 -53 -44 43 c-42 43 -43
44 -27 70 9 14 23 38 32 52 l16 26 43 -42 43 -42 -32 -54z m1317 76 c22 -22
38 -42 36 -43 -2 -2 -27 -17 -55 -34 l-51 -31 -37 38 c-20 20 -36 41 -36 46 1
10 79 63 94 64 4 0 26 -18 49 -40z m702 -51 l53 -55 -82 -1 -83 -2 -47 46
c-26 25 -44 49 -39 53 8 9 67 16 116 15 21 -1 43 -16 82 -56z m240 39 c55 -11
65 -17 135 -88 111 -112 112 -114 49 -86 -30 13 -87 32 -126 42 -67 17 -78 24
-139 85 l-67 67 44 -4 c24 -3 71 -10 104 -16z m-532 -76 l47 -47 -66 -19 -66
-19 -45 45 -44 45 53 21 c29 11 58 21 63 21 6 1 32 -20 58 -47z m-916 -91 c-7
-9 -25 -30 -39 -48 l-25 -31 -42 42 -42 42 38 47 38 46 42 -41 c36 -36 41 -44
30 -57z m-307 7 c0 -5 -15 -30 -32 -57 l-33 -48 -42 43 -41 42 35 52 35 52 39
-38 c21 -21 39 -42 39 -46z m612 -42 l-45 -43 -40 44 -41 44 44 39 45 40 41
-41 41 -40 -45 -43z m-948 56 l41 -37 -30 -57 -30 -56 -44 41 -44 41 28 53
c15 29 30 53 33 53 2 0 23 -17 46 -38z m1348 -41 c19 -18 19 -19 -36 -50 l-55
-32 -43 40 -43 41 25 17 c13 10 37 25 54 34 28 16 30 15 54 -8 13 -13 33 -32
44 -42z m690 -50 c13 -6 59 -46 103 -91 l80 -80 -70 24 c-38 13 -92 27 -120
32 -43 6 -56 14 -112 72 l-64 65 80 -7 c44 -3 90 -10 103 -15z m-268 -47 l49
-54 -29 -1 c-30 -1 -63 -5 -100 -14 -15 -3 -34 9 -69 45 -54 55 -58 47 40 69
58 13 55 14 109 -45z m-980 -84 l-38 -50 -43 42 c-47 46 -48 38 15 109 l23 26
41 -38 40 -39 -38 -50z m-300 -5 c-14 -22 -29 -46 -33 -54 -7 -12 -18 -6 -51
28 l-42 42 33 54 33 54 42 -41 43 -42 -25 -41z m630 0 l-46 -41 -42 41 -42 40
46 42 45 42 42 -42 43 -41 -46 -41z m-910 17 c3 -7 -7 -38 -22 -68 l-27 -54
-44 44 -43 44 28 56 28 55 37 -32 c20 -18 40 -38 43 -45z m2254 -64 c200 -149
351 -393 387 -628 4 -25 9 -54 11 -65 10 -46 3 -217 -11 -294 -61 -319 -265
-584 -559 -726 -240 -116 -515 -129 -770 -38 -39 14 -88 34 -110 45 l-38 19
21 23 21 22 -254 255 -255 254 -20 82 c-12 45 -21 94 -21 109 0 25 5 21 69
-44 54 -55 76 -86 97 -138 102 -255 308 -449 559 -527 107 -33 160 -40 290
-39 376 3 709 251 828 617 9 28 19 64 22 80 3 17 8 46 12 65 4 19 6 82 5 140
-1 109 -26 227 -70 336 l-21 51 33 32 32 31 -230 231 -231 230 75 -42 c41 -23
99 -59 128 -81z m-954 71 c20 -23 36 -42 34 -44 -2 -1 -28 -13 -59 -27 l-55
-25 -43 43 -42 43 48 25 c26 14 55 25 63 26 9 0 33 -18 54 -41z m-1623 -10
l42 -42 -18 -51 c-29 -82 -28 -81 -68 -37 -20 23 -41 41 -46 41 -8 0 39 130
47 130 1 0 21 -19 43 -41z m1109 -139 c-3 -3 -21 -24 -39 -48 l-34 -43 -38 37
c-22 21 -39 41 -39 45 0 3 16 27 35 52 l34 45 44 -42 c23 -22 40 -43 37 -46z
m-346 29 l39 -40 -28 -52 c-16 -29 -29 -53 -31 -55 -1 -2 -21 15 -45 38 l-43
41 29 55 c16 30 31 54 35 54 3 0 23 -18 44 -41z m648 4 l39 -38 -47 -41 -47
-40 -39 42 -39 43 38 35 c21 20 42 36 48 36 5 0 26 -17 47 -37z m-921 -126
c-12 -25 -21 -51 -21 -56 0 -20 -16 -11 -58 32 l-41 42 26 58 26 58 45 -44 44
-44 -21 -46z m1583 124 c-3 -3 30 -40 72 -82 l77 -77 -54 18 c-30 9 -79 21
-109 25 -48 6 -61 13 -107 58 -29 28 -53 55 -53 58 0 4 40 7 89 6 49 -1 87 -4
85 -6z m-262 -71 c43 -42 49 -53 26 -50 -2 0 -28 -8 -59 -18 l-55 -20 -44 44
-44 44 45 19 c37 16 63 26 77 30 1 1 25 -21 54 -49z m-1602 -116 l-22 -65 -44
43 c-24 23 -44 48 -44 55 0 7 9 37 21 68 l21 56 45 -46 44 -46 -21 -65z m2130
101 c186 -105 309 -259 373 -465 29 -96 32 -283 6 -386 -48 -185 -149 -336
-294 -439 -94 -67 -207 -117 -294 -131 -18 -3 -43 -8 -55 -10 -84 -17 -256 1
-353 38 -45 16 -52 22 -42 34 10 12 -27 54 -214 242 -244 246 -238 237 -252
367 l-7 60 70 -68 c49 -49 73 -81 82 -110 21 -72 80 -173 137 -237 283 -312
779 -277 1016 73 113 165 142 406 71 581 -5 12 -4 17 3 13 5 -3 27 11 47 32
l38 39 -201 201 c-110 111 -199 201 -197 201 2 0 32 -16 66 -35z m-2423 -47
l42 -43 -16 -69 -16 -68 -49 49 -50 50 17 62 c10 33 21 61 24 61 4 0 25 -19
48 -42z m1341 -40 l24 -26 -35 -50 -34 -50 -42 42 -42 42 27 40 c49 72 38 72
102 2z m356 -47 c-5 -4 -27 -21 -49 -37 l-40 -30 -38 42 -38 42 47 40 46 39
41 -44 c22 -24 36 -47 31 -52z m-659 -52 c-15 -30 -29 -56 -31 -58 -3 -4 -84
78 -84 85 0 3 12 29 28 59 l27 54 43 -43 44 -43 -27 -54z m-280 -48 c-10 -34
-21 -61 -25 -61 -3 0 -25 20 -49 44 l-43 44 23 61 24 61 44 -44 45 -45 -19
-60z m-255 1 c-1 -13 -29 -124 -32 -128 -2 -2 -25 19 -51 45 l-47 48 21 68 21
68 44 -47 c24 -26 44 -50 44 -54z m1627 13 c49 -51 60 -66 42 -61 -13 4 -58
10 -99 13 -74 5 -76 6 -122 53 l-48 49 53 9 c89 16 102 11 174 -63z m253 -44
c25 -20 53 -45 63 -56 35 -39 106 -155 94 -155 -1 0 -67 66 -147 146 -129 130
-140 143 -100 124 25 -12 65 -39 90 -59z m-2153 -100 l-12 -72 -52 53 -52 53
10 45 c22 105 14 100 69 44 l49 -51 -12 -72z m1290 101 l22 -18 -30 -45 c-16
-24 -31 -48 -33 -54 -2 -5 -24 10 -49 35 l-45 45 36 51 36 52 21 -23 c11 -13
30 -32 42 -43z m363 -38 c0 -1 -16 -12 -35 -24 -20 -12 -42 -28 -49 -35 -11
-11 -20 -6 -56 30 l-42 43 48 36 48 37 43 -43 c24 -23 43 -43 43 -44z m-661
-73 c-12 -33 -23 -61 -26 -61 -2 0 -24 21 -48 46 l-44 46 24 55 c14 31 25 58
25 61 0 3 20 -15 45 -40 l45 -46 -21 -61z m-252 14 c1 -1 -4 -24 -12 -53 -16
-62 -15 -58 -15 -79 0 -12 -15 -2 -50 32 -27 27 -50 55 -50 63 0 8 7 39 16 69
l16 55 46 -43 c26 -24 48 -44 49 -44z m-311 -20 l46 -46 -8 -62 c-4 -34 -7
-68 -5 -74 4 -24 -15 -13 -63 36 -47 48 -48 49 -40 97 5 27 9 52 10 57 1 4 2
14 3 22 2 22 6 19 57 -30z m1026 -48 l26 -27 -26 -60 -27 -60 -45 45 -44 45
27 56 c31 62 31 62 89 1z m-1278 -26 c46 -47 48 -51 43 -92 -3 -24 -6 -60 -6
-79 l-1 -35 -56 56 -56 56 8 71 c3 40 10 72 13 72 4 0 28 -22 55 -49z m1628 2
c26 -26 48 -50 48 -53 0 -3 -18 -6 -40 -7 -22 0 -52 -9 -66 -18 -14 -9 -26
-15 -27 -13 -1 2 -19 22 -40 45 l-39 41 44 26 c23 14 50 26 58 26 8 0 36 -21
62 -47z m170 18 c44 -28 82 -71 108 -119 6 -13 10 -25 8 -27 -2 -2 -43 37 -91
86 -48 49 -84 89 -79 89 4 0 29 -13 54 -29z m-816 -23 l41 -43 -10 -76 -11
-76 -53 54 c-29 30 -53 58 -53 61 0 15 35 122 40 122 3 0 24 -19 46 -42z
m-1224 -81 c38 -39 38 -39 38 -125 l0 -86 -59 58 c-59 58 -59 59 -56 110 2 28
4 64 4 80 1 26 3 27 18 15 10 -8 35 -31 55 -52z m961 16 l45 -41 -1 -86 -1
-86 -58 57 -58 58 6 55 c3 30 6 63 6 73 -1 24 7 20 61 -30z m1417 -58 l27 26
6 -27 c8 -44 5 -150 -5 -201 -42 -196 -207 -359 -406 -402 -65 -14 -172 -14
-206 -1 -28 10 -409 388 -415 411 -7 29 -10 159 -3 159 4 0 30 -24 58 -53 40
-41 56 -67 73 -121 37 -117 110 -201 221 -254 49 -23 67 -26 165 -27 102 0
114 2 170 29 100 49 197 161 222 257 9 36 9 190 0 223 l-8 29 37 -37 37 -37
27 26z m-1623 -52 c5 3 8 -20 9 -51 0 -32 3 -76 6 -99 3 -24 2 -43 -1 -43 -4
0 -33 28 -66 61 l-59 62 2 69 c1 38 5 74 8 79 3 5 26 -11 50 -36 24 -26 47
-44 51 -42z m931 38 c32 -33 40 -49 45 -91 11 -89 76 -150 161 -150 27 0 44
-9 81 -45 l46 -45 -28 -11 c-15 -6 -48 -13 -72 -16 l-43 -5 -134 133 -134 134
5 42 c5 43 21 93 29 93 3 0 23 -18 44 -39z m-1161 -192 c3 -30 8 -74 13 -98
l8 -44 -69 69 -70 70 -3 88 -4 89 60 -60 c55 -55 60 -64 65 -114z m1404 129
c17 -31 5 -30 -26 2 -25 26 -26 28 -6 23 12 -3 26 -14 32 -25z m226 -117 c-6
-14 -20 -39 -30 -54 l-19 -28 -42 38 -42 38 18 37 c10 21 18 52 18 70 l0 32
54 -53 c50 -50 54 -56 43 -80z m-1862 -103 c3 -29 8 -60 10 -68 2 -8 7 -30 10
-49 l6 -34 -70 68 c-59 58 -71 74 -75 109 -9 70 -13 136 -9 140 2 2 30 -23 63
-55 53 -52 59 -63 65 -111z m-300 20 c56 -55 64 -67 70 -112 8 -56 9 -62 23
-125 l10 -43 -76 78 c-42 43 -77 84 -78 91 -1 7 -5 46 -9 86 -4 39 -9 75 -12
80 -14 23 17 -1 72 -55z m845 -213 c0 -22 75 -169 123 -240 23 -33 63 -85 91
-115 27 -30 -36 30 -141 134 l-191 188 -22 77 c-12 42 -24 87 -26 101 -3 14
-7 32 -9 40 -3 8 35 -26 85 -77 49 -51 90 -99 90 -108z m-311 5 c44 -43 83
-89 86 -102 22 -71 105 -220 173 -313 33 -45 3 -19 -120 105 l-165 165 -25 80
c-30 92 -42 145 -34 145 3 0 41 -36 85 -80z m-133 -210 c47 -101 105 -212 138
-262 20 -31 36 -60 36 -63 0 -4 -63 57 -141 135 l-141 142 -34 105 c-19 57
-34 111 -34 120 0 23 157 -135 176 -177z m-172 -197 c31 -63 77 -147 102 -186
26 -40 44 -70 41 -67 -83 75 -292 292 -299 310 -15 37 -78 222 -78 229 0 3 40
-34 89 -83 80 -79 96 -102 145 -203z m535 -157 c-2 -2 -13 8 -23 22 l-19 27
24 -22 c12 -12 21 -24 18 -27z m181 -182 c0 -4 -38 29 -85 76 -47 47 -85 88
-85 93 0 5 38 -29 85 -75 47 -47 85 -89 85 -94z m-250 -70 c114 -115 164 -171
129 -145 -53 41 -232 218 -274 271 -11 14 -26 33 -34 43 -34 43 8 3 179 -169z"/>
<path d="M3612 6454 c16 -19 1294 -1294 1296 -1294 4 0 -7 103 -15 140 -3 16
-210 230 -556 577 l-550 551 -66 12 c-89 15 -112 18 -109 14z"/>
<path d="M4245 6143 c104 -103 271 -271 372 -371 101 -101 180 -176 176 -165
-12 32 -75 146 -106 193 -129 191 -324 371 -519 479 -120 66 -112 52 77 -136z"/>
</g>
</svg>
