<?xml version="1.0" encoding="utf-8"?>
<!-- Generator: Adobe Illustrator 24.0.1, SVG Export Plug-In . SVG Version: 6.00 Build 0)  -->
<svg version="1.1" xmlns="http://www.w3.org/2000/svg" xmlns:xlink="http://www.w3.org/1999/xlink" x="0px" y="0px" width="2285px"
	 height="2285px" viewBox="0 0 2285 2285" style="enable-background:new 0 0 2285 2285;" xml:space="preserve">
<style type="text/css">
	.st0{fill:none;stroke:#BEC328;stroke-miterlimit:10;}
	.st1{fill:none;stroke:#BEC328;stroke-width:7;stroke-miterlimit:10;}
	.st2{fill:none;stroke:#ffffff;stroke-width:20.7;stroke-miterlimit:10;}
	.st3{fill:none;stroke:#ffffff;stroke-width:22;stroke-miterlimit:10;}
	.st4{fill:none;stroke:#ffffff;stroke-width:18.285;stroke-miterlimit:10;}
	.st5{fill:none;stroke:#ffffff;stroke-width:17.48;stroke-miterlimit:10;}
	.st6{fill:none;stroke:#ffffff;stroke-width:16.675;stroke-miterlimit:10;}
	.st7{fill:none;stroke:#ffffff;stroke-width:15.87;stroke-miterlimit:10;}
	.st8{fill:none;stroke:#ffffff;stroke-width:15.065;stroke-miterlimit:10;}
	.st9{fill:none;stroke:#ffffff;stroke-width:14.26;stroke-miterlimit:10;}
	.st10{fill:none;stroke:#ffffff;stroke-width:13.455;stroke-miterlimit:10;}
	.st11{fill:none;stroke:#ffffff;stroke-width:12.65;stroke-miterlimit:10;}
	.st12{fill:none;stroke:#ffffff;stroke-width:11.845;stroke-miterlimit:10;}
	.st13{fill:none;stroke:#ffffff;stroke-width:11.04;stroke-miterlimit:10;}
	.st14{fill:none;stroke:#ffffff;stroke-width:10.235;stroke-miterlimit:10;}
	.st15{fill:none;stroke:#ffffff;stroke-width:9.43;stroke-miterlimit:10;}
	.st16{fill:none;stroke:#ffffff;stroke-width:8.625;stroke-miterlimit:10;}
	.st17{fill:none;stroke:#ffffff;stroke-width:7.82;stroke-miterlimit:10;}
	.st18{fill:none;stroke:#ffffff;stroke-width:7.015;stroke-miterlimit:10;}
	.st19{fill:none;stroke:#ffffff;stroke-width:6.21;stroke-miterlimit:10;}
	.st20{fill:none;stroke:#ffffff;stroke-width:5.405;stroke-miterlimit:10;}
	.st21{fill:none;stroke:#ffffff;stroke-width:4.6;stroke-miterlimit:10;}
	.st22{fill:none;stroke:#ffffff;stroke-miterlimit:10;}
</style>
<g id="KV_x5F_Lines_x5F_7px_x5F_yellow">
</g>
<g id="KV_x5F_Lines_x5F_1px_x5F_yellow">
</g>
<g id="KV_x5F_circles_x5F_fat_x5F_raw_x5F_bright-blue">
</g>
<g id="KV_x5F_circles_x5F_thin_x5F_raw_x5F_bright-blue">
	<g>
		<path class="st22" d="M1142.501,1085.703c-31.375,0-56.808,25.428-56.808,56.795c0,31.371,25.433,56.799,56.808,56.799
			c31.375,0,56.806-25.428,56.806-56.799C1199.307,1111.131,1173.876,1085.703,1142.501,1085.703z"/>
		<path class="st22" d="M1264.639,1142.498c0-67.44-54.683-122.112-122.138-122.112c-67.456,0-122.136,54.672-122.136,122.112
			c0,67.443,54.68,122.115,122.136,122.115C1209.956,1264.613,1264.639,1209.941,1264.639,1142.498z"/>

			<ellipse transform="matrix(1 -0.0076 0.0076 1 -8.6882 8.7548)" class="st22" cx="1142.501" cy="1142.499" rx="181.786" ry="181.75"/>

			<ellipse transform="matrix(1 -0.0055 0.0055 1 -6.2385 6.2727)" class="st22" cx="1142.5" cy="1142.499" rx="241.435" ry="241.388"/>

			<ellipse transform="matrix(1 -0.0048 0.0048 1 -5.4697 5.496)" class="st22" cx="1142.5" cy="1142.499" rx="301.082" ry="301.025"/>

			<ellipse transform="matrix(1 -0.0037 0.0037 1 -4.2057 4.2212)" class="st22" cx="1142.501" cy="1142.499" rx="360.73" ry="360.66"/>
		<ellipse class="st22" cx="1142.5" cy="1142.498" rx="420.379" ry="420.299"/>

			<ellipse transform="matrix(1 -0.0031 0.0031 1 -3.5731 3.5843)" class="st22" cx="1142.501" cy="1142.499" rx="480.029" ry="479.934"/>

			<ellipse transform="matrix(1 -0.0023 0.0023 1 -2.6557 2.6619)" class="st22" cx="1142.501" cy="1142.499" rx="539.676" ry="539.572"/>

			<ellipse transform="matrix(1 -0.0024 0.0024 1 -2.7371 2.7437)" class="st22" cx="1142.5" cy="1142.499" rx="599.323" ry="599.209"/>

			<ellipse transform="matrix(1 -0.0024 0.0024 1 -2.6825 2.6888)" class="st22" cx="1142.501" cy="1142.499" rx="658.974" ry="658.844"/>

			<ellipse transform="matrix(1 -0.0022 0.0022 1 -2.534 2.5397)" class="st22" cx="1142.501" cy="1142.499" rx="718.621" ry="718.483"/>

			<ellipse transform="matrix(1 -0.0014 0.0014 1 -1.638 1.6403)" class="st22" cx="1142.5" cy="1142.499" rx="778.269" ry="778.121"/>

			<ellipse transform="matrix(1 -0.0015 0.0015 1 -1.7026 1.7052)" class="st22" cx="1142.5" cy="1142.499" rx="837.919" ry="837.755"/>

			<ellipse transform="matrix(1 -0.0017 0.0017 1 -1.9068 1.91)" class="st22" cx="1142.5" cy="1142.499" rx="897.567" ry="897.393"/>

			<ellipse transform="matrix(1 -0.0012 0.0012 1 -1.319 1.3205)" class="st22" cx="1142.501" cy="1142.499" rx="957.215" ry="957.03"/>

			<ellipse transform="matrix(1 -0.0013 0.0013 1 -1.5231 1.5251)" class="st22" cx="1142.501" cy="1142.499" rx="1016.862" ry="1016.667"/>

			<ellipse transform="matrix(1 -0.0019 0.0019 1 -2.1811 2.1853)" class="st22" cx="1142.5" cy="1142.499" rx="1076.512" ry="1076.305"/>

			<ellipse transform="matrix(1 -0.0018 0.0018 1 -2.0162 2.0198)" class="st22" cx="1142.501" cy="1142.499" rx="1136.159" ry="1135.943"/>
	</g>
</g>
<g id="KV_x5F_circles_x5F_left_x5F_thin_x5F_bright-blue">
</g>
<g id="KV_x5F_circles_x5F_right_x5F_fat_x5F_bright-blue">
</g>
</svg>
